{"failedCount":0,"prefixedPath":"classpath:features\/siigo.feature","packageQualifiedName":"features.siigo","loopIndex":-1,"relativePath":"features\/siigo.feature","scenarioResults":[{"sectionIndex":0,"stepResults":[{"result":{"nanos":51301100,"startTime":1728312613855,"endTime":1728312613906,"millis":51.3011,"status":"passed"},"step":{"background":true,"line":4,"prefix":"*","index":0,"text":"url 'https:\/\/reqres.in\/api'"}},{"result":{"nanos":746400,"startTime":1728312613908,"endTime":1728312613909,"millis":0.7464,"status":"passed"},"step":{"line":7,"prefix":"And","index":0,"text":"path 'users'"}},{"result":{"nanos":590162500,"startTime":1728312613908,"endTime":1728312614498,"millis":590.1625,"status":"passed"},"step":{"line":8,"prefix":"When","index":1,"text":"method get"}},{"result":{"nanos":2392300,"startTime":1728312614499,"endTime":1728312614501,"millis":2.3923,"status":"passed"},"step":{"line":9,"prefix":"Then","index":2,"text":"status 200"}},{"result":{"nanos":74363900,"startTime":1728312614502,"endTime":1728312614576,"millis":74.3639,"status":"passed"},"step":{"line":10,"prefix":"*","index":3,"text":"print response"},"stepLog":"09:50:14.571 [print] {\n  \"page\": 1,\n  \"per_page\": 6,\n  \"total\": 12,\n  \"total_pages\": 2,\n  \"data\": [\n    {\n      \"id\": 1,\n      \"email\": \"george.bluth@reqres.in\",\n      \"first_name\": \"George\",\n      \"last_name\": \"Bluth\",\n      \"avatar\": \"https:\/\/reqres.in\/img\/faces\/1-image.jpg\"\n    },\n    {\n      \"id\": 2,\n      \"email\": \"janet.weaver@reqres.in\",\n      \"first_name\": \"Janet\",\n      \"last_name\": \"Weaver\",\n      \"avatar\": \"https:\/\/reqres.in\/img\/faces\/2-image.jpg\"\n    },\n    {\n      \"id\": 3,\n      \"email\": \"emma.wong@reqres.in\",\n      \"first_name\": \"Emma\",\n      \"last_name\": \"Wong\",\n      \"avatar\": \"https:\/\/reqres.in\/img\/faces\/3-image.jpg\"\n    },\n    {\n      \"id\": 4,\n      \"email\": \"eve.holt@reqres.in\",\n      \"first_name\": \"Eve\",\n      \"last_name\": \"Holt\",\n      \"avatar\": \"https:\/\/reqres.in\/img\/faces\/4-image.jpg\"\n    },\n    {\n      \"id\": 5,\n      \"email\": \"charles.morris@reqres.in\",\n      \"first_name\": \"Charles\",\n      \"last_name\": \"Morris\",\n      \"avatar\": \"https:\/\/reqres.in\/img\/faces\/5-image.jpg\"\n    },\n    {\n      \"id\": 6,\n      \"email\": \"tracey.ramos@reqres.in\",\n      \"first_name\": \"Tracey\",\n      \"last_name\": \"Ramos\",\n      \"avatar\": \"https:\/\/reqres.in\/img\/faces\/6-image.jpg\"\n    }\n  ],\n  \"support\": {\n    \"url\": \"https:\/\/reqres.in\/#support-heading\",\n    \"text\": \"To keep ReqRes free, contributions towards server costs are appreciated!\"\n  }\n}\n \n"},{"result":{"nanos":4384200,"startTime":1728312614576,"endTime":1728312614580,"millis":4.3842,"status":"passed"},"step":{"line":11,"prefix":"*","index":4,"text":"print 'El código de estado es:', responseStatus"},"stepLog":"09:50:14.580 [print] El código de estado es: 200 \n"},{"result":{"nanos":32102000,"startTime":1728312614581,"endTime":1728312614613,"millis":32.102,"status":"passed"},"step":{"line":12,"prefix":"And","index":5,"text":"match response.page == 1"}},{"result":{"nanos":1236700,"startTime":1728312614613,"endTime":1728312614614,"millis":1.2367,"status":"passed"},"step":{"line":13,"prefix":"And","index":6,"text":"match response.per_page == 6"}},{"result":{"nanos":2450200,"startTime":1728312614614,"endTime":1728312614616,"millis":2.4502,"status":"passed"},"step":{"line":14,"prefix":"And","index":7,"text":"match response.total == 12"}},{"result":{"nanos":945200,"startTime":1728312614617,"endTime":1728312614618,"millis":0.9452,"status":"passed"},"step":{"line":15,"prefix":"And","index":8,"text":"match response.total_pages == 2"}},{"result":{"nanos":5253100,"startTime":1728312614618,"endTime":1728312614623,"millis":5.2531,"status":"passed"},"step":{"line":16,"prefix":"And","index":9,"text":"match each response.data contains {id: '#number',email: '#string',first_name: '#string',last_name: '#string',avatar: '#string'}"}},{"result":{"nanos":834700,"startTime":1728312614623,"endTime":1728312614624,"millis":0.8347,"status":"passed"},"step":{"line":17,"prefix":"And","index":10,"text":"match response.support.url == 'https:\/\/reqres.in\/#support-heading'"}},{"result":{"nanos":724600,"startTime":1728312614624,"endTime":1728312614625,"millis":0.7246,"status":"passed"},"step":{"line":18,"prefix":"And","index":11,"text":"match response.support.text == 'To keep ReqRes free, contributions towards server costs are appreciated!'"}}],"executorName":"Test worker","line":6,"name":"Obtener lista de usuarios","description":"","durationMillis":766.8969,"startTime":1728312613845,"failed":false,"refId":"[1:6]","endTime":1728312614625,"exampleIndex":-1},{"sectionIndex":1,"stepResults":[{"result":{"nanos":463100,"startTime":1728312614639,"endTime":1728312614639,"millis":0.4631,"status":"passed"},"step":{"background":true,"line":4,"prefix":"*","index":0,"text":"url 'https:\/\/reqres.in\/api'"}},{"result":{"nanos":228700,"startTime":1728312614639,"endTime":1728312614639,"millis":0.2287,"status":"passed"},"step":{"line":21,"prefix":"Given","index":0,"text":"request { \"name\": \"John\", \"job\": \"developer\" }"}},{"result":{"nanos":300000,"startTime":1728312614640,"endTime":1728312614640,"millis":0.3,"status":"passed"},"step":{"line":22,"prefix":"And","index":1,"text":"path 'users'"}},{"result":{"nanos":457934600,"startTime":1728312614640,"endTime":1728312615098,"millis":457.9346,"status":"passed"},"step":{"line":23,"prefix":"When","index":2,"text":"method post"}},{"result":{"nanos":12600,"startTime":1728312615097,"endTime":1728312615097,"millis":0.0126,"status":"passed"},"step":{"line":24,"prefix":"Then","index":3,"text":"status 201"}},{"result":{"nanos":1241800,"startTime":1728312615097,"endTime":1728312615098,"millis":1.2418,"status":"passed"},"step":{"line":25,"prefix":"*","index":4,"text":"print response"},"stepLog":"09:50:15.099 [print] {\n  \"name\": \"John\",\n  \"job\": \"developer\",\n  \"id\": \"222\",\n  \"createdAt\": \"2024-10-07T14:50:15.086Z\"\n}\n \n"},{"result":{"nanos":680800,"startTime":1728312615099,"endTime":1728312615100,"millis":0.6808,"status":"passed"},"step":{"line":26,"prefix":"*","index":5,"text":"print 'El código de estado es:', responseStatus"},"stepLog":"09:50:15.100 [print] El código de estado es: 201 \n"},{"result":{"nanos":1107900,"startTime":1728312615100,"endTime":1728312615101,"millis":1.1079,"status":"passed"},"step":{"line":27,"prefix":"And","index":6,"text":"match response.name == 'John'"}},{"result":{"nanos":536300,"startTime":1728312615101,"endTime":1728312615102,"millis":0.5363,"status":"passed"},"step":{"line":28,"prefix":"And","index":7,"text":"match response.job == 'developer'"}},{"result":{"nanos":2107500,"startTime":1728312615102,"endTime":1728312615104,"millis":2.1075,"status":"passed"},"step":{"line":29,"prefix":"And","index":8,"text":"match response.createdAt != null"}}],"executorName":"Test worker","line":20,"name":"Crear un nuevo usuario","description":"","durationMillis":464.6133,"startTime":1728312614639,"failed":false,"refId":"[2:20]","endTime":1728312615104,"exampleIndex":-1},{"sectionIndex":2,"stepResults":[{"result":{"nanos":198900,"startTime":1728312615110,"endTime":1728312615110,"millis":0.1989,"status":"passed"},"step":{"background":true,"line":4,"prefix":"*","index":0,"text":"url 'https:\/\/reqres.in\/api'"}},{"result":{"nanos":249700,"startTime":1728312615110,"endTime":1728312615110,"millis":0.2497,"status":"passed"},"step":{"line":32,"prefix":"Given","index":0,"text":"request { \"name\": \"John\", \"job\": \"senior developer\" }"}},{"result":{"nanos":666100,"startTime":1728312615110,"endTime":1728312615111,"millis":0.6661,"status":"passed"},"step":{"line":33,"prefix":"And","index":1,"text":"path 'users\/2'"}},{"result":{"nanos":406658500,"startTime":1728312615111,"endTime":1728312615518,"millis":406.6585,"status":"passed"},"step":{"line":34,"prefix":"When","index":2,"text":"method put"}},{"result":{"nanos":13700,"startTime":1728312615518,"endTime":1728312615518,"millis":0.0137,"status":"passed"},"step":{"line":35,"prefix":"Then","index":3,"text":"status 200"}},{"result":{"nanos":852100,"startTime":1728312615518,"endTime":1728312615519,"millis":0.8521,"status":"passed"},"step":{"line":36,"prefix":"*","index":4,"text":"print response"},"stepLog":"09:50:15.519 [print] {\n  \"name\": \"John\",\n  \"job\": \"senior developer\",\n  \"updatedAt\": \"2024-10-07T14:50:15.508Z\"\n}\n \n"},{"result":{"nanos":479100,"startTime":1728312615519,"endTime":1728312615519,"millis":0.4791,"status":"passed"},"step":{"line":37,"prefix":"*","index":5,"text":"print 'El código de estado es:', responseStatus"},"stepLog":"09:50:15.519 [print] El código de estado es: 200 \n"},{"result":{"nanos":857000,"startTime":1728312615519,"endTime":1728312615520,"millis":0.857,"status":"passed"},"step":{"line":38,"prefix":"And","index":6,"text":"match response.name == 'John'"}},{"result":{"nanos":1419400,"startTime":1728312615521,"endTime":1728312615522,"millis":1.4194,"status":"passed"},"step":{"line":39,"prefix":"And","index":7,"text":"match response.job == 'senior developer'"}}],"executorName":"Test worker","line":31,"name":"Actualizar un usuario existente","description":"","durationMillis":411.3945,"startTime":1728312615110,"failed":false,"refId":"[3:31]","endTime":1728312615522,"exampleIndex":-1},{"sectionIndex":3,"stepResults":[{"result":{"nanos":195800,"startTime":1728312615529,"endTime":1728312615529,"millis":0.1958,"status":"passed"},"step":{"background":true,"line":4,"prefix":"*","index":0,"text":"url 'https:\/\/reqres.in\/api'"}},{"result":{"nanos":59800,"startTime":1728312615529,"endTime":1728312615529,"millis":0.0598,"status":"passed"},"step":{"line":42,"prefix":"And","index":0,"text":"path 'users\/2'"}},{"result":{"nanos":409786000,"startTime":1728312615529,"endTime":1728312615939,"millis":409.786,"status":"passed"},"step":{"line":43,"prefix":"When","index":1,"text":"method delete"}},{"result":{"nanos":17700,"startTime":1728312615939,"endTime":1728312615939,"millis":0.0177,"status":"passed"},"step":{"line":44,"prefix":"Then","index":2,"text":"status 204"}},{"result":{"nanos":868900,"startTime":1728312615939,"endTime":1728312615940,"millis":0.8689,"status":"passed"},"step":{"line":45,"prefix":"*","index":3,"text":"print response"},"stepLog":"09:50:15.940 [print]  \n"},{"result":{"nanos":1023000,"startTime":1728312615940,"endTime":1728312615941,"millis":1.023,"status":"passed"},"step":{"line":46,"prefix":"*","index":4,"text":"print 'El código de estado es:', responseStatus"},"stepLog":"09:50:15.941 [print] El código de estado es: 204 \n"}],"executorName":"Test worker","line":41,"name":"Eliminar un usuario","description":"","durationMillis":411.9512,"startTime":1728312615529,"failed":false,"refId":"[4:41]","endTime":1728312615941,"exampleIndex":-1}],"callDepth":0,"name":"Pruebas de API para la gestión de usuarios","description":"","resultDate":"2024-10-07 09:50:15 a.\u202Fm.","durationMillis":2054.8559,"passedCount":4}